Rendering Font into data.frame • string2path
…
dump_fontdb()

Note that "Noto Sans JP" above (and "Iosevka SS08" below) is the font installed on my local machine, so the same code might not run on your environment. You can use dump_fontdb() to see the available combination of font family (e.g. "Arial"), weight (e.g. "bold"), and style (e.g. "italic").

dump_fontdb()
#> # A tibble: 449 × 5
#>    source                                  index family        weight style 
#>    <chr>                                   <int> <chr>         <chr>  <chr> 
#>  1 "C:\\WINDOWS\\Fonts\\arial.ttf"             0 Arial         normal normal
#>  2 "C:\\WINDOWS\\Fonts\\arialbd.ttf"           0 Arial         bold   normal
#>  3 "C:\\WINDOWS\\Fonts\\arialbi.ttf"           0 Arial         bold   italic
#>  4 "C:\\WINDOWS\\Fonts\\ariali.ttf"            0 Arial         normal italic
#>  5 "C:\\WINDOWS\\Fonts\\ariblk.ttf"            0 Arial         black  normal
#>  6 "C:\\WINDOWS\\Fonts\\bahnschrift.ttf"       0 Bahnschrift   normal normal
#>  7 "C:\\WINDOWS\\Fonts\\BIZ-UDGothicB.ttc"     0 BIZ UDGothic  bold   normal
#>  8 "C:\\WINDOWS\\Fonts\\BIZ-UDGothicB.ttc"     1 BIZ UDPGothic bold   normal
#>  9 "C:\\WINDOWS\\Fonts\\BIZ-UDGothicR.ttc"     0 BIZ UDGothic  normal normal
#> 10 "C:\\WINDOWS\\Fonts\\BIZ-UDGothicR.ttc"     1 BIZ UDPGothic normal normal
#> # ℹ 439 more rows
…
