…
<img src="man/figures/README-example-1.gif" width="50%" />

#### `dump_fontdb()`

Note that `"Noto Sans JP"` above (and `"Iosevka SS08"` below) is the
font installed on my local machine, so the same code might not run on
your environment. You can use `dump_fontdb()` to see the available
combination of font family (e.g. `"Arial"`), weight (e.g. `"bold"`), and
style (e.g. `"italic"`).

``` r
dump_fontdb()
#> # A tibble: 447 × 5
#>    source                                  index family        weight style 
#>    <chr>                                   <dbl> <chr>         <chr>  <chr> 
#>  1 "C:\\Windows\\Fonts\\arial.ttf"             0 Arial         normal normal
#>  2 "C:\\Windows\\Fonts\\arialbd.ttf"           0 Arial         bold   normal
#>  3 "C:\\Windows\\Fonts\\arialbi.ttf"           0 Arial         bold   italic
#>  4 "C:\\Windows\\Fonts\\ariali.ttf"            0 Arial         normal italic
#>  5 "C:\\Windows\\Fonts\\ariblk.ttf"            0 Arial Black   black  normal
#>  6 "C:\\Windows\\Fonts\\bahnschrift.ttf"       0 Bahnschrift   normal normal
#>  7 "C:\\Windows\\Fonts\\BIZ-UDGothicB.ttc"     0 BIZ UDGothic  bold   normal
#>  8 "C:\\Windows\\Fonts\\BIZ-UDGothicB.ttc"     1 BIZ UDPGothic bold   normal
#>  9 "C:\\Windows\\Fonts\\BIZ-UDGothicR.ttc"     0 BIZ UDGothic  normal normal
#> 10 "C:\\Windows\\Fonts\\BIZ-UDGothicR.ttc"     1 BIZ UDPGothic normal normal
#> # … with 437 more rows
```
…
